{
  "images" : [
    {
      "idiom" : "universal",
      "scale" : "1x"
    },
    {
      "idiom" : "universal",
      "scale" : "2x",
      "filename" : "icony_0003_Vector-Smart-Object-copy-5-1.png"
    },
    {
      "idiom" : "universal",
      "scale" : "3x",
      "filename" : "icony_0003_Vector-Smart-Object-copy-5.png"
    }
  ],
  "info" : {
    "version" : 1,
    "author" : "xcode"
  }
}